3 Differential Expression between protocols (Figure 2) – Long read sequencing reveals changes in measured isoform structure and abundance due to RNA processing
…
Test adding numbers of features tested on second y

Code

longer_de_labels_grouped <- longer_de_labels %>%dplyr::filter(!is.na(value)) %>% dplyr::select(c( feature_id,contrast,cell_line,value))%>%# %>% group_by(cell_line,contrast)%>%mutate(number_tested = n())%>%ungroup()%>%
  #filter(value !=0)%>% 
  group_by(contrast,feature_id)%>%mutate(de_contrasts_num = sum(abs(value))) 
longer_de_labels_grouped$collapsed_de_contrasts_num <- fct_collapse(
factor(longer_de_labels_grouped$de_contrasts_num),"0" =c(0),"1" = c(1),"2-4" = c(2,3,4),"5-7"=c(5,6,7))

test_colors <- c(RColorBrewer::brewer.pal(9,"Oranges")[2],RColorBrewer::brewer.pal(9,"Oranges")[5],RColorBrewer::brewer.pal(9,"Oranges")[9])

longer_de_labels_grouped%>%group_by(contrast,cell_line)%>%summarise(features_tested = n())%>%ungroup()

# A tibble: 21 × 3
   contrast      cell_line features_tested
   <chr>         <chr>               <int>
 1 dRNAvsPCRcDNA A549                 9517
 2 dRNAvsPCRcDNA H9                  16127
 3 dRNAvsPCRcDNA HEYA8               13115
 4 dRNAvsPCRcDNA Hct116              10545
 5 dRNAvsPCRcDNA HepG2                8819
 6 dRNAvsPCRcDNA K562                 8147
 7 dRNAvsPCRcDNA MCF7                10430
 8 dRNAvsdcDNA   A549                 9517
 9 dRNAvsdcDNA   H9                  16127
10 dRNAvsdcDNA   HEYA8               13115
# ℹ 11 more rows
…
